[
	{
		"id": "SampleExtension",
		"headers": ["Perception/AIPerceptionComponent.h", "Perception/AISense_Damage.h"]
	},
	{
		"id": "AnotherExample",
		"headers": ["Perception/AIPerceptionComponent.h"]
	}
]
